<?xml version="1.0" encoding="UTF-8" standalone="no"?>
<svg viewBox="0 0 150 140" xmlns="http://www.w3.org/2000/svg" xmlns:xlink="http://www.w3.org/1999/xlink">

    <style type="text/css">
        <![CDATA[
            .rect {
                fill: #5880a6;
                rx:2;
                ry:2;
            }

            marker {
                fill: #24c0e8;
            }

            @keyframes showArrow{
                0% { stroke-dashoffset:180 }
                50% { stroke-dashoffset:0 }
                100% { stroke-dashoffset:180 }
            }

            @keyframes triangleOpacity{
                0% { opacity:0}
                50% { opacity:1 }
                70% { opacity:0 }
                100% { opacity:0; }
            }
            .arrow {
                fill:transparent;
                stroke-wdith:40;
                stroke-dashoffset:10;
                stroke-dasharray:180;
                stroke: #24c0e8;
                animation: showArrow forwards 3s infinite;
                animation-delay: 2s;
            }


            .triangle {
                animation: triangleOpacity forwards 3s infinite;
                transform-origint : 50% 100%;
                animation-delay: 2s;
            }

            @keyframes rect1{
                0% { height:20; }
                50% { height:0; }
                100% { height:20; }
            }

            @keyframes rect2{
                0% { height:40; }
                50% { height:0; }
                100% { height:40; }
            }

            @keyframes rect3{
                0% { height:60; }
                50% { height:0; }
                100% { height:60; }
            }

            @keyframes rect4{
                0% { height:80; }
                50% { height:0; }
                100% { height:80; }
            }

            .rect1,
            .rect2,
            .rect3,
            .rect4 {
                transform: rotate(180deg);
                transform-origin: 50% 50%;
            }

            .rect1 {
                animation: rect1 3s infinite;
            }
            .rect2 {
                animation: rect2 3s infinite;
            }
            .rect3 {
                animation: rect3 3s infinite;
            }
            .rect4 {
                animation: rect3 3s infinite;
            }
        ]]>
    </style>

    <g class="columns" transform="translate(20,45)">
        <rect class="rect rect1" width="20" height="20" x="0" y="80" />
        <rect class="rect rect2" width="20" height="40" x="30" y="60" />
        <rect class="rect rect3" width="20" height="60" x="60" y="40" />
        <rect class="rect rect4" width="20" height="80" x="90" y="20" />
    </g>

    <defs>
   <marker id="Triangle"
     viewBox="0 0 10 10" refX="0" refY="5"
     markerUnits="strokeWidth"
     markerWidth="4" markerHeight="2.5"
     orient="auto">
     <path class="triangle" d="M 0 0 L 10 5 L 0 10 z" />
   </marker>
 </defs>

 <!-- <path transform="translate(20,10)" d="M 0 75 L 20 55 L 55 45 L 80 10"
       fill="none" stroke="#2196f3" stroke-width="8"
       marker-end="url(#Triangle)"  /> -->
 <path class="arrow" transform="translate(20,42)" d="M -5 65 L 25 40 50 40 90 5"
       fill="none" stroke="#2196f3" stroke-width="8"
       marker-end="url(#Triangle)"  />
</svg>
