<?xml version="1.0" encoding="UTF-8" standalone="no"?>
<svg
   xmlns:dc="http://purl.org/dc/elements/1.1/"
   xmlns:cc="http://creativecommons.org/ns#"
   xmlns:rdf="http://www.w3.org/1999/02/22-rdf-syntax-ns#"
   xmlns:svg="http://www.w3.org/2000/svg"
   xmlns="http://www.w3.org/2000/svg"
   xmlns:xlink="http://www.w3.org/1999/xlink"
   xmlns:sodipodi="http://sodipodi.sourceforge.net/DTD/sodipodi-0.dtd"
   xmlns:inkscape="http://www.inkscape.org/namespaces/inkscape"
   width="1707"
   height="303"
   viewBox="0 0 1707 303"
   version="1.1"
   id="svg5374"
   sodipodi:docname="network_1.svg"
   inkscape:version="0.92.3 (2405546, 2018-03-11)">
  <metadata
     id="metadata5378">
    <rdf:RDF>
      <cc:Work
         rdf:about="">
        <dc:format>image/svg+xml</dc:format>
        <dc:type
           rdf:resource="http://purl.org/dc/dcmitype/StillImage" />
        <dc:title>Group</dc:title>
      </cc:Work>
    </rdf:RDF>
  </metadata>
  <sodipodi:namedview
     pagecolor="#ffffff"
     bordercolor="#666666"
     borderopacity="1"
     objecttolerance="10"
     gridtolerance="10"
     guidetolerance="10"
     inkscape:pageopacity="0"
     inkscape:pageshadow="2"
     inkscape:window-width="1688"
     inkscape:window-height="875"
     id="namedview5376"
     showgrid="false"
     inkscape:zoom="0.95109383"
     inkscape:cx="560.74017"
     inkscape:cy="31.525428"
     inkscape:window-x="157"
     inkscape:window-y="27"
     inkscape:window-maximized="0"
     inkscape:current-layer="g5372" />
  <title
     id="title5263">Group</title>
  <defs
     id="defs5326">
    <linearGradient
       x1="195.44917"
       y1="344.82593"
       x2="346.06473"
       y2="320.10471"
       id="a"
       gradientTransform="matrix(2.2984933,0,0,0.41308716,23.298544,5)"
       gradientUnits="userSpaceOnUse">
      <stop
         stop-color="#FFF"
         stop-opacity="0"
         offset="0%"
         id="stop5265" />
      <stop
         stop-color="#FFF"
         stop-opacity=".296"
         offset="100%"
         id="stop5267" />
    </linearGradient>
    <circle
       id="c"
       cx="849.25"
       cy="183.25"
       r="6.25" />
    <filter
       x="-50%"
       y="-50%"
       width="200%"
       height="200%"
       filterUnits="objectBoundingBox"
       id="b">
      <feOffset
         in="SourceAlpha"
         result="shadowOffsetOuter1"
         id="feOffset5271" />
      <feGaussianBlur
         stdDeviation="5"
         in="shadowOffsetOuter1"
         result="shadowBlurOuter1"
         id="feGaussianBlur5273" />
      <feColorMatrix
         values="0 0 0 0 1 0 0 0 0 1 0 0 0 0 1 0 0 0 1 0"
         in="shadowBlurOuter1"
         id="feColorMatrix5275" />
    </filter>
    <circle
       id="e"
       cx="1263.5"
       cy="107.5"
       r="2.5" />
    <filter
       x="-50%"
       y="-50%"
       width="200%"
       height="200%"
       filterUnits="objectBoundingBox"
       id="d">
      <feOffset
         in="SourceAlpha"
         result="shadowOffsetOuter1"
         id="feOffset5279" />
      <feGaussianBlur
         stdDeviation="2.5"
         in="shadowOffsetOuter1"
         result="shadowBlurOuter1"
         id="feGaussianBlur5281" />
      <feColorMatrix
         values="0 0 0 0 1 0 0 0 0 1 0 0 0 0 1 0 0 0 1 0"
         in="shadowBlurOuter1"
         id="feColorMatrix5283" />
    </filter>
    <circle
       id="g"
       cx="433.5"
       cy="101.5"
       r="2.5" />
    <filter
       x="-50%"
       y="-50%"
       width="200%"
       height="200%"
       filterUnits="objectBoundingBox"
       id="f">
      <feOffset
         in="SourceAlpha"
         result="shadowOffsetOuter1"
         id="feOffset5287" />
      <feGaussianBlur
         stdDeviation="2.5"
         in="shadowOffsetOuter1"
         result="shadowBlurOuter1"
         id="feGaussianBlur5289" />
      <feColorMatrix
         values="0 0 0 0 1 0 0 0 0 1 0 0 0 0 1 0 0 0 1 0"
         in="shadowBlurOuter1"
         id="feColorMatrix5291" />
    </filter>
    <circle
       id="i"
       cx="2.5"
       cy="290.5"
       r="2.5" />
    <filter
       x="-50%"
       y="-50%"
       width="200%"
       height="200%"
       filterUnits="objectBoundingBox"
       id="h">
      <feOffset
         in="SourceAlpha"
         result="shadowOffsetOuter1"
         id="feOffset5295" />
      <feGaussianBlur
         stdDeviation="2.5"
         in="shadowOffsetOuter1"
         result="shadowBlurOuter1"
         id="feGaussianBlur5297" />
      <feColorMatrix
         values="0 0 0 0 1 0 0 0 0 1 0 0 0 0 1 0 0 0 1 0"
         in="shadowBlurOuter1"
         id="feColorMatrix5299" />
    </filter>
    <circle
       id="k"
       cx="1522.5"
       cy="3.5"
       r="3.5" />
    <filter
       x="-50%"
       y="-50%"
       width="200%"
       height="200%"
       filterUnits="objectBoundingBox"
       id="j">
      <feOffset
         in="SourceAlpha"
         result="shadowOffsetOuter1"
         id="feOffset5303" />
      <feGaussianBlur
         stdDeviation="2.5"
         in="shadowOffsetOuter1"
         result="shadowBlurOuter1"
         id="feGaussianBlur5305" />
      <feColorMatrix
         values="0 0 0 0 1 0 0 0 0 1 0 0 0 0 1 0 0 0 1 0"
         in="shadowBlurOuter1"
         id="feColorMatrix5307" />
    </filter>
    <circle
       id="m"
       cx="185.5"
       cy="9.5"
       r="3.5" />
    <filter
       x="-50%"
       y="-50%"
       width="200%"
       height="200%"
       filterUnits="objectBoundingBox"
       id="l">
      <feOffset
         in="SourceAlpha"
         result="shadowOffsetOuter1"
         id="feOffset5311" />
      <feGaussianBlur
         stdDeviation="2.5"
         in="shadowOffsetOuter1"
         result="shadowBlurOuter1"
         id="feGaussianBlur5313" />
      <feColorMatrix
         values="0 0 0 0 1 0 0 0 0 1 0 0 0 0 1 0 0 0 1 0"
         in="shadowBlurOuter1"
         id="feColorMatrix5315" />
    </filter>
    <circle
       id="o"
       cx="1694.5"
       cy="247.5"
       r="2.5" />
    <filter
       x="-50%"
       y="-50%"
       width="200%"
       height="200%"
       filterUnits="objectBoundingBox"
       id="n">
      <feOffset
         in="SourceAlpha"
         result="shadowOffsetOuter1"
         id="feOffset5319" />
      <feGaussianBlur
         stdDeviation="2.5"
         in="shadowOffsetOuter1"
         result="shadowBlurOuter1"
         id="feGaussianBlur5321" />
      <feColorMatrix
         values="0 0 0 0 1 0 0 0 0 1 0 0 0 0 1 0 0 0 1 0"
         in="shadowBlurOuter1"
         id="feColorMatrix5323" />
    </filter>
  </defs>
  <g
     fill="none"
     fill-rule="evenodd"
     id="g5372">
    <path
       d="M 441.52937,64.276733 435.84677,106.5 m 36.6904,40.94316 L 435.84677,106.5 m -50.78611,67.03517 87.47651,-26.09201 M 367.19014,82.842363 472.53717,147.44316 m 868.51033,37.69556 -495.32129,-49.29503"
       id="path5328"
       inkscape:connector-curvature="0"
       style="stroke:url(#a);stroke-width:0.99999994"
       sodipodi:nodetypes="cccccccccc" />
    <g
       transform="translate(-370.35729,-37.056839)"
       id="g5334">
      <use
         xlink:href="#c"
         id="use5330"
         style="fill:#000000;filter:url(#b)"
         x="0"
         y="0"
         width="100%"
         height="100%" />
      <use
         xlink:href="#c"
         id="use5332"
         style="fill:#ffffff"
         x="0"
         y="0"
         width="100%"
         height="100%" />
    </g>
    <g
       transform="translate(-818.26262,-42.313944)"
       id="g5340">
      <use
         xlink:href="#e"
         id="use5336"
         style="fill:#000000;filter:url(#d)"
         x="0"
         y="0"
         width="100%"
         height="100%" />
      <use
         xlink:href="#e"
         id="use5338"
         style="fill:#ffffff"
         x="0"
         y="0"
         width="100%"
         height="100%" />
    </g>
    <g
       transform="translate(5 5)"
       id="g5346">
      <use
         fill="#FFF"
         xlink:href="#g"
         id="use5344" />
    </g>
    <g
       transform="translate(382.46013,-115.91341)"
       id="g5352">
      <use
         xlink:href="#i"
         id="use5348"
         style="fill:#000000;filter:url(#h)"
         x="0"
         y="0"
         width="100%"
         height="100%" />
      <use
         xlink:href="#i"
         id="use5350"
         style="fill:#ffffff"
         x="0"
         y="0"
         width="100%"
         height="100%" />
    </g>
    <g
       transform="translate(-678.42364,133.27336)"
       id="g5358">
      <use
         xlink:href="#k"
         id="use5354"
         style="fill:#000000;filter:url(#j)"
         x="0"
         y="0"
         width="100%"
         height="100%" />
      <use
         xlink:href="#k"
         id="use5356"
         style="fill:#ffffff"
         x="0"
         y="0"
         width="100%"
         height="100%" />
    </g>
    <g
       transform="translate(181.63872,73.342363)"
       id="g5364">
      <use
         xlink:href="#m"
         id="use5360"
         style="fill:#000000;filter:url(#l)"
         x="0"
         y="0"
         width="100%"
         height="100%" />
      <use
         xlink:href="#m"
         id="use5362"
         style="fill:#ffffff"
         x="0"
         y="0"
         width="100%"
         height="100%" />
    </g>
  </g>
</svg>
